^C:\USERS\MATT CHIARELLI\DESKTOP\LEAP_MOTION_SDK_WINDOWS_2.2.0\LEAPDEVELOPERKIT_2.2.0+23475_WIN\LEAPSDK\SAMPLES\OOP PARTICLE ENGINE\OOP PARTICLE ENGINE\FORM1.RESX|C:\USERS\MATT CHIARELLI\DESKTOP\LEAP_MOTION_SDK_WINDOWS_2.2.0\LEAPDEVELOPERKIT_2.2.0+23475_WIN\LEAPSDK\SAMPLES\OOP PARTICLE ENGINE\OOP PARTICLE ENGINE\PROPERTIES\RESOURCES.RESX
C:\USERS\MATT CHIARELLI\DESKTOP\LEAP_MOTION_SDK_WINDOWS_2.2.0\LEAPDEVELOPERKIT_2.2.0+23475_WIN\LEAPSDK\SAMPLES\OOP PARTICLE ENGINE\OOP PARTICLE ENGINE\OBJ\X86\DEBUG\OOP_PARTICLE_ENGINE.FORM1.RESOURCES
C:\USERS\MATT CHIARELLI\DESKTOP\LEAP_MOTION_SDK_WINDOWS_2.2.0\LEAPDEVELOPERKIT_2.2.0+23475_WIN\LEAPSDK\SAMPLES\OOP PARTICLE ENGINE\OOP PARTICLE ENGINE\OBJ\X86\DEBUG\OOP_PARTICLE_ENGINE.PROPERTIES.RESOURCES.RESOURCES
